Google Data Analytics Capstone, Bellabeat | Hamdan Iftikhar
…
2
3
4
5
6
7
8
9
10
11
12
13
14

## # A tibble: 33 x 2
##    partID         Id
##     <int>      <dbl>
##  1      1 1503960366
##  2      2 1624580081
##  3      3 1644430081
##  4      4 1844505072
##  5      5 1927972279
##  6      6 2022484408
##  7      7 2026352035
##  8      8 2320127002
##  9      9 2347167796
## 10     10 2873212765
## # ... with 23 more rows
…
3
4
5
6
7
8
9
10
11
12
13
14
15

## # A tibble: 33 x 3
## # Groups:   Id, partID [33]
##            Id partID     n
##         <dbl>  <int> <int>
##  1 4057192912     14     4
##  2 2347167796      9    18
##  3 8253242879     29    19
##  4 3372868164     11    20
##  5 6775888955     24    26
##  6 7007744171     26    26
##  7 6117666160     22    28
##  8 6290855005     23    29
##  9 8792009665     32    29
## 10 1644430081      3    30
## # ... with 23 more rows
…
3
4
5
6
7
8
9
10
11
12
13
14
15

## # A tibble: 32 x 3
## # Groups:   Id, partID [32]
##            Id partID     n
##         <dbl>  <int> <int>
##  1 2347167796      9    18
##  2 8253242879     29    19
##  3 3372868164     11    20
##  4 6775888955     24    26
##  5 7007744171     26    26
##  6 6117666160     22    28
##  7 6290855005     23    29
##  8 8792009665     32    29
##  9 1644430081      3    30
## 10 3977333714     12    30
## # ... with 22 more rows
…
3
4
5
6
7
8
9
10
11
12
13
14
15

## # A tibble: 32 x 3
## # Groups:   Id, partID [32]
##            Id partID     n
##         <dbl>  <int> <int>
##  1 1927972279      5    17
##  2 4020332650     13    17
##  3 6775888955     24    17
##  4 2347167796      9    18
##  5 8253242879     29    18
##  6 8792009665     32    19
##  7 3372868164     11    20
##  8 1844505072      4    21
##  9 6117666160     22    23
## 10 6290855005     23    24
## # ... with 22 more rows
…
2
3
4
5
6
7
8
9
10
11
12
13
14

## # A tibble: 32 x 4
##    partID         Id AvgSteps AvgCalories
##     <int>      <dbl>    <dbl>       <dbl>
##  1      1 1503960366   12521.       1877.
##  2      2 1624580081    4735.       1443.
##  3      3 1644430081    7283.       2811.
##  4      4 1844505072    3809.       1714.
##  5      5 1927972279    1671.       2303.
##  6      6 2022484408   11371.       2510.
##  7      7 2026352035    5567.       1541.
##  8      8 2320127002    4717.       1724.
##  9      9 2347167796    9520.       2043.
## 10     10 2873212765    7556.       1917.
## # ... with 22 more rows
…
